{
  "body": {
    "page": 2,
    "per_page": 6,
    "total": 12,
    "total_pages": 2,
    "data": [
      {
        "id": 7,
        "email": "michael.lawson@reqres.in",
        "first_name": "Michael",
        "last_name": "Lawson",
        "avatar": "https://reqres.in/img/faces/7-image.jpg"
      },
      {
        "id": 8,
        "email": "lindsay.ferguson@reqres.in",
        "first_name": "Lindsay",
        "last_name": "Ferguson",
        "avatar": "https://reqres.in/img/faces/8-image.jpg"
      },
      {
        "id": 9,
        "email": "tobias.funke@reqres.in",
        "first_name": "Tobias",
        "last_name": "Funke",
        "avatar": "https://reqres.in/img/faces/9-image.jpg"
      },
      {
        "id": 10,
        "email": "byron.fields@reqres.in",
        "first_name": "Byron",
        "last_name": "Fields",
        "avatar": "https://reqres.in/img/faces/10-image.jpg"
      },
      {
        "id": 11,
        "email": "george.edwards@reqres.in",
        "first_name": "George",
        "last_name": "Edwards",
        "avatar": "https://reqres.in/img/faces/11-image.jpg"
      },
      {
        "id": 12,
        "email": "rachel.howell@reqres.in",
        "first_name": "Rachel",
        "last_name": "Howell",
        "avatar": "https://reqres.in/img/faces/12-image.jpg"
      }
    ],
    "support": {
      "url": "https://reqres.in/#support-heading",
      "text": "To keep ReqRes free, contributions towards server costs are appreciated!"
    }
  },
  "headers": {
    "date": "Tue, 02 Jul 2024 02:51:11 GMT",
    "content-type": "application/json; charset=utf-8",
    "transfer-encoding": "chunked",
    "connection": "keep-alive",
    "report-to": "{\"group\":\"heroku-nel\",\"max_age\":3600,\"endpoints\":[{\"url\":\"https://nel.heroku.com/reports?ts=1719863946&sid=c4c9725f-1ab0-44d8-820f-430df2718e11&s=qjZV1pil%2B27j7zdlIa9%2FWeQsK6kGnqteU%2FEchKxgx9I%3D\"}]}",
    "reporting-endpoints": "heroku-nel=https://nel.heroku.com/reports?ts=1719863946&sid=c4c9725f-1ab0-44d8-820f-430df2718e11&s=qjZV1pil%2B27j7zdlIa9%2FWeQsK6kGnqteU%2FEchKxgx9I%3D",
    "nel": "{\"report_to\":\"heroku-nel\",\"max_age\":3600,\"success_fraction\":0.005,\"failure_fraction\":0.05,\"response_headers\":[\"Via\"]}",
    "x-powered-by": "Express",
    "access-control-allow-origin": "*",
    "etag": "W/\"406-ut0vzoCuidvyMf8arZpMpJ6ZRDw\"",
    "via": "1.1 vegur",
    "cache-control": "max-age=14400",
    "cf-cache-status": "HIT",
    "age": "3498",
    "vary": "Accept-Encoding",
    "server": "cloudflare",
    "cf-ray": "89cb5526589d3c13-BLR",
    "content-encoding": "gzip"
  },
  "status": 200,
  "statusText": "OK",
  "isOkStatusCode": true,
  "requestHeaders": {
    "Connection": "keep-alive",
    "user-agent": "Mozilla/5.0 (Windows NT 10.0; Win64; x64) AppleWebKit/537.36 (KHTML, like Gecko) Chrome/126.0.0.0 Safari/537.36",
    "accept": "*/*",
    "accept-encoding": "gzip, deflate"
  },
  "duration": 84,
  "allRequestResponses": [
    {
      "Request Body": null,
      "Request Headers": {
        "Connection": "keep-alive",
        "user-agent": "Mozilla/5.0 (Windows NT 10.0; Win64; x64) AppleWebKit/537.36 (KHTML, like Gecko) Chrome/126.0.0.0 Safari/537.36",
        "accept": "*/*",
        "accept-encoding": "gzip, deflate"
      },
      "Request URL": "https://reqres.in/api/users?page=2",
      "Response Body": "{\"page\":2,\"per_page\":6,\"total\":12,\"total_pages\":2,\"data\":[{\"id\":7,\"email\":\"michael.lawson@reqres.in\",\"first_name\":\"Michael\",\"last_name\":\"Lawson\",\"avatar\":\"https://reqres.in/img/faces/7-image.jpg\"},{\"id\":8,\"email\":\"lindsay.ferguson@reqres.in\",\"first_name\":\"Lindsay\",\"last_name\":\"Ferguson\",\"avatar\":\"https://reqres.in/img/faces/8-image.jpg\"},{\"id\":9,\"email\":\"tobias.funke@reqres.in\",\"first_name\":\"Tobias\",\"last_name\":\"Funke\",\"avatar\":\"https://reqres.in/img/faces/9-image.jpg\"},{\"id\":10,\"email\":\"byron.fields@reqres.in\",\"first_name\":\"Byron\",\"last_name\":\"Fields\",\"avatar\":\"https://reqres.in/img/faces/10-image.jpg\"},{\"id\":11,\"email\":\"george.edwards@reqres.in\",\"first_name\":\"George\",\"last_name\":\"Edwards\",\"avatar\":\"https://reqres.in/img/faces/11-image.jpg\"},{\"id\":12,\"email\":\"rachel.howell@reqres.in\",\"first_name\":\"Rachel\",\"last_name\":\"Howell\",\"avatar\":\"https://reqres.in/img/faces/12-image.jpg\"}],\"support\":{\"url\":\"https://reqres.in/#support-heading\",\"text\":\"To keep ReqRes free, contributions towards server costs are appreciated!\"}}",
      "Response Headers": {
        "date": "Tue, 02 Jul 2024 02:51:11 GMT",
        "content-type": "application/json; charset=utf-8",
        "transfer-encoding": "chunked",
        "connection": "keep-alive",
        "report-to": "{\"group\":\"heroku-nel\",\"max_age\":3600,\"endpoints\":[{\"url\":\"https://nel.heroku.com/reports?ts=1719863946&sid=c4c9725f-1ab0-44d8-820f-430df2718e11&s=qjZV1pil%2B27j7zdlIa9%2FWeQsK6kGnqteU%2FEchKxgx9I%3D\"}]}",
        "reporting-endpoints": "heroku-nel=https://nel.heroku.com/reports?ts=1719863946&sid=c4c9725f-1ab0-44d8-820f-430df2718e11&s=qjZV1pil%2B27j7zdlIa9%2FWeQsK6kGnqteU%2FEchKxgx9I%3D",
        "nel": "{\"report_to\":\"heroku-nel\",\"max_age\":3600,\"success_fraction\":0.005,\"failure_fraction\":0.05,\"response_headers\":[\"Via\"]}",
        "x-powered-by": "Express",
        "access-control-allow-origin": "*",
        "etag": "W/\"406-ut0vzoCuidvyMf8arZpMpJ6ZRDw\"",
        "via": "1.1 vegur",
        "cache-control": "max-age=14400",
        "cf-cache-status": "HIT",
        "age": "3498",
        "vary": "Accept-Encoding",
        "server": "cloudflare",
        "cf-ray": "89cb5526589d3c13-BLR",
        "content-encoding": "gzip"
      },
      "Response Status": 200
    }
  ]
}